%YAML 1.1
%TAG !u! tag:unity3d.com,2011:
--- !u!1045 &1
EditorBuildSettings:
  m_ObjectHideFlags: 0
  serializedVersion: 2
  m_Scenes: []
  m_configObjects:
    com.unity.adaptiveperformance.loader_settings: {fileID: 11400000, guid: f97c8067b6e1a9d4cbba8694e5a75ed4,
      type: 2}
    com.unity.adaptiveperformance.simulator.provider_settings: {fileID: 11400000,
      guid: 5671087c434a3974d8150933ad6ae5d9, type: 2}
